﻿{
  "iisSettings": {
    "windowsAuthentication": false,
    "anonymousAuthentication": true,
    "iisExpress": {
      "applicationUrl": "http://localhost:45100",
      "sslPort": 44356
    }
  },
  "profiles": {
    "GraphQL.Api": {
      "commandName": "Project",
      "dotnetRunMessages": true,
      "launchBrowser": true,
      "applicationUrl": "https://localhost:7069;http://localhost:5226",
      "environmentVariables": {
        "ASPNETCORE_ENVIRONMENT": "Development",
        "GOOGLE_APPLICATION_CREDENTIALS": "./firebase-config.json"
      }
    },
    "IIS Express": {
      "commandName": "IISExpress",
      "launchBrowser": true,
      "environmentVariables": {
        "ASPNETCORE_ENVIRONMENT": "Development"
      }
    }
  }
}
